{
  "name": "Gun Damage Table",
  "filterCode": "return data.test.type === 'Weapon Damage Test' && (data.trials[0].eventLog.map(e => e.EventName).includes('FireBulletEvent') || data.trials[0].eventLog.map(e => e.EventName).includes('FireContinuousEvent'));",
  "transformCode": "const maxComponents = {\n  maxMounts: 14,\n  maxCompartments: 16,\n  maxModules: 15\n};\nlet componentIds = [];\nfor(let i = 1;i <= maxComponents.maxMounts;i++) {\n  componentIds.push({\n    key: `mount${i}`,\n    id: `Mount${i}`,\n    index: i - 1,\n    type: 'mounts'\n  });\n}\nfor(let i = 1;i <= maxComponents.maxCompartments;i++) {\n  componentIds.push({\n    key: `compartment${i}`,\n    id: `Compartment${i}`,\n    index: i - 1,\n    type: 'compartments'\n  });\n}\nfor(let i = 1;i <= maxComponents.maxModules;i++) {\n  componentIds.push({\n    key: `module${i}`,\n    id: `Module${i}`,\n    index: i - 1,\n    type: 'modules'\n  });\n}\n\nlet transformedData = [];\nlet componentLocationData = {\n  sprinter: [],\n  raines: [],\n  keystone: [],\n  vauxhall: [],\n  axford: [],\n  solomon: []\n};\n\nfor(let data of allData) {\n  if(data.trials.length > 0) {\n\t  let eventLog = data.trials[0].eventLog;\n    if(componentLocationData[data.test.custom.hull].length <= 0) {\n      let shipData = eventLog.filter(e => e.EventName === 'ShipDataEvent' && e.OriginShip === 'Target')[0];\n      componentLocationData[data.test.custom.hull] = shipData.Components.map(c => {\n        return {\n          name: c.ComponentID,\n          position: c.PositionInHull\n        };\n      });\n    }\n    let componentHitEvents = eventLog.filter(e => e.EventName === 'ComponentDamageEvent');\n    let totalDamage = jStat.sum(componentHitEvents.map(e => e.DamageDone));\n    let totalHits = componentHitEvents.length;\n    let currTransformedData = {\n      name: data.name,\n      hull: data.test.custom.hull.charAt(0).toUpperCase() + data.test.custom.hull.substring(1),\n      orientation: data.test.custom.orientation,\n      weapon: data.test.custom.weapon,\n      radar: data.test.custom.radar.charAt(0).toUpperCase() + data.test.custom.radar.substring(1),\n      fcr: data.test.custom.fcr,\n      range: data.test.custom.range,\n      total: totalDamage,\n      totalHits: totalHits\n    };\n    for(let componentId of componentIds) {\n      let currComponentHitEvents = componentHitEvents.filter(e => e.Component.ComponentID === componentId.id);\n      let currTotalDamage = jStat.sum(currComponentHitEvents.map(e => e.DamageDone));\n      let currTotalHits = currComponentHitEvents.length;\n      let isValid = componentId.index < data.test.setup.targetShip.ship[componentId.type].length;\n      currTransformedData[componentId.key + 'Total'] = isValid ? currTotalDamage : null;\n      currTransformedData[componentId.key + 'Percent'] = isValid ? currTotalDamage / totalDamage : null;\n      currTransformedData[componentId.key + 'TotalHits'] = isValid ? currTotalHits : null;\n    }\n    transformedData.push(currTransformedData);\n  }\n}\nlet meshData = {};\nfor(let key of Object.keys(componentLocationData)) {\n  meshData[key] = fetch(`https://gitlab.com/nebfltcom/data/-/raw/main/wiki/${key}.json`).json().MeshData;\n}\nreturn {\n  shipMesh: meshData,\n  shipComponentLocationData: componentLocationData,\n  data: transformedData\n};",
  "chartCode": "const maxComponents = {\n  maxMounts: 14,\n  maxCompartments: 16,\n  maxModules: 15\n};\nlet componentIds = [];\nfor(let i = 1;i <= maxComponents.maxMounts;i++) {\n  componentIds.push({\n    key: `mount${i}`,\n    title: `Mount ${i}`\n  });\n}\nfor(let i = 1;i <= maxComponents.maxCompartments;i++) {\n  componentIds.push({\n    key: `compartment${i}`,\n    title: `Compartment ${i}`\n  });\n}\nfor(let i = 1;i <= maxComponents.maxModules;i++) {\n  componentIds.push({\n    key: `module${i}`,\n    title: `Module ${i}`\n  });\n}\n\nlet columns = [\n  { title: 'Target Hull Type', field: 'hull', sorter: 'string', headerFilter: true },\n  { title: 'Target Orientation', field: 'orientation', sorter: 'string', headerFilter: true },\n  { title: 'Attacking Weapon', field: 'weapon', sorter: 'string', headerFilter: true },\n  { title: 'Attacking Radar', field: 'radar', sorter: 'string', headerFilter: true },\n  { title: 'Attacker Has FCR', field: 'fcr', sorter: 'boolean', headerFilter: true, formatter: 'tickCross' },\n  { title: 'Range (m)', field: 'range', sorter: 'number', headerFilter: true },\n  { title: 'Total Damage', field: 'total', sorter: 'number', headerFilter: true }\n];\nfor(let componentId of componentIds) {\n  columns.push({\n    title: componentId.title + ' Total Damage',\n  \tfield: componentId.key + 'Total',\n    sorter: 'number',\n    headerFilter: true\n  });\n  columns.push({\n    title: componentId.title + ' Percent Damage',\n  \tfield: componentId.key + 'Percent',\n    sorter: 'number',\n    headerFilter: true\n  });\n}\n\ntargetElement.insertAdjacentHTML('afterbegin', `<button id=\"download-csv\">Download CSV</button>\n<button id=\"download-json\">Download JSON</button>\n<button id=\"download-xlsx\">Download XLSX</button>\n<button id=\"download-pdf\">Download PDF</button>\n<button id=\"download-html\">Download HTML</button>\n<div id=\"table\"></div>`);\n\nlet table = new Tabulator(document.getElementById('table'), {\n  data: allData.data,\n  pagination: true,\n  paginationSize: 25,\n  paginationSizeSelector: [10, 25, 50, 100, 500, 1000],\n  paginationCounter: 'rows',\n  movableColumns: true,\n  columns: columns\n});\n\ndocument.getElementById('download-csv').addEventListener('click', function(){\n  table.download('csv', 'data.csv');\n});\n\ndocument.getElementById('download-json').addEventListener('click', function(){\n  table.download('json', 'data.json');\n});\n\ndocument.getElementById('download-xlsx').addEventListener('click', function(){\n  table.download('xlsx', 'data.xlsx', { sheetName: 'Data' });\n});\n\ndocument.getElementById('download-pdf').addEventListener('click', function(){\n  table.download('pdf', 'data.pdf', {\n    orientation: 'portrait',\n    title: 'Data'\n  });\n});\n\ndocument.getElementById('download-html').addEventListener('click', function(){\n  table.download('html', 'data.html', { style: true });\n});"
}